^C:\SHUBHENDU\PROJECTS\PHAETON\PAINTANALYSIS 2013-11-02\DFM\BASEGALILFORM.RESX
^C:\SHUBHENDU\PROJECTS\PHAETON\PAINTANALYSIS 2013-11-02\DFM\CAPTIONEDDISPLAY.RESX
^C:\SHUBHENDU\PROJECTS\PHAETON\PAINTANALYSIS 2013-11-02\DFM\DFMSCANDISPLAYCONTROL.RESX
^C:\SHUBHENDU\PROJECTS\PHAETON\PAINTANALYSIS 2013-11-02\DFM\DFM_FORM.RESX
^C:\SHUBHENDU\PROJECTS\PHAETON\PAINTANALYSIS 2013-11-02\DFM\DFM_FORM_OLD.RESX
^C:\SHUBHENDU\PROJECTS\PHAETON\PAINTANALYSIS 2013-11-02\DFM\DFM_FORM_SIMPLE.RESX
^C:\SHUBHENDU\PROJECTS\PHAETON\PAINTANALYSIS 2013-11-02\DFM\DFM_RANGECHECKER_FORM.RESX
^C:\SHUBHENDU\PROJECTS\PHAETON\PAINTANALYSIS 2013-11-02\DFM\DFM_SETTINGS_FORM.RESX
^C:\SHUBHENDU\PROJECTS\PHAETON\PAINTANALYSIS 2013-11-02\DFM\DFM_SETTINGS_FORM_OLD.RESX
^C:\SHUBHENDU\PROJECTS\PHAETON\PAINTANALYSIS 2013-11-02\DFM\DFM_SIMPLE_SETTINGS_FORM.RESX
^C:\SHUBHENDU\PROJECTS\PHAETON\PAINTANALYSIS 2013-11-02\DFM\GALILFORM.RESX
^C:\SHUBHENDU\PROJECTS\PHAETON\PAINTANALYSIS 2013-11-02\DFM\GALILMONITORFORM.RESX
^C:\SHUBHENDU\PROJECTS\PHAETON\PAINTANALYSIS 2013-11-02\DFM\GALILTESTINGFORM.RESX
^C:\SHUBHENDU\PROJECTS\PHAETON\PAINTANALYSIS 2013-11-02\DFM\GRAPHDISPLAY.RESX
^C:\SHUBHENDU\PROJECTS\PHAETON\PAINTANALYSIS 2013-11-02\DFM\LASERTESTFORM.RESX
^C:\SHUBHENDU\PROJECTS\PHAETON\PAINTANALYSIS 2013-11-02\DFM\PASSWORDCHANGEFORM.RESX
^C:\SHUBHENDU\PROJECTS\PHAETON\PAINTANALYSIS 2013-11-02\DFM\PASSWORDPROMPTFORM.RESX
^C:\SHUBHENDU\PROJECTS\PHAETON\PAINTANALYSIS 2013-11-02\DFM\PITDISPLAYFORM.RESX
^C:\SHUBHENDU\PROJECTS\PHAETON\PAINTANALYSIS 2013-11-02\DFM\PROPERTIES\RESOURCES.RESX
C:\WINDOWS\MICROSOFT.NET\FRAMEWORK\V2.0.50727\MSCORRC.DLL
C:\SHUBHENDU\PROJECTS\PHAETON\PAINTANALYSIS 2013-11-02\DFM\RESOURCES\LOGO_NOTEXT.PNG
C:\SHUBHENDU\PROJECTS\PHAETON\PAINTANALYSIS 2013-11-02\DFM\RESOURCES\LOGO_NOTEXT_TRANSPARENT.ICO
^C:\SHUBHENDU\PROJECTS\PHAETON\PAINTANALYSIS 2013-11-02\DFM\RESULTS\DFMRESULTSDISPLAYFORM.RESX
^C:\SHUBHENDU\PROJECTS\PHAETON\PAINTANALYSIS 2013-11-02\DFM\SCANBROWSERFORM.RESX
^C:\SHUBHENDU\PROJECTS\PHAETON\PAINTANALYSIS 2013-11-02\DFM\SETTINGSTESTFORM.RESX
^C:\SHUBHENDU\PROJECTS\PHAETON\PAINTANALYSIS 2013-11-02\DFM\SETTINGS\CONTROLS\BASE_SETTINGS_CONTROL.RESX
^C:\SHUBHENDU\PROJECTS\PHAETON\PAINTANALYSIS 2013-11-02\DFM\SETTINGS\CONTROLS\TABBED_SETTINGS_CONTROL.RESX
^C:\SHUBHENDU\PROJECTS\PHAETON\PAINTANALYSIS 2013-11-02\DFM\SETTINGS\FORMS\BASE_SETTINGS_FORM.RESX
^C:\SHUBHENDU\PROJECTS\PHAETON\PAINTANALYSIS 2013-11-02\DFM\SETTINGS\FORMS\TABBED_SETTINGS_FORM.RESX
^C:\SHUBHENDU\PROJECTS\PHAETON\PAINTANALYSIS 2013-11-02\DFM\TEST.RESX
^C:\DOCUMENTS AND SETTINGS\ANITA\MY DOCUMENTS\VISUAL STUDIO 2010\PROJECTS\PAINTANALYSIS 2013-11-02\DFM\BASEGALILFORM.RESX
^C:\DOCUMENTS AND SETTINGS\ANITA\MY DOCUMENTS\VISUAL STUDIO 2010\PROJECTS\PAINTANALYSIS 2013-11-02\DFM\CAPTIONEDDISPLAY.RESX
^C:\DOCUMENTS AND SETTINGS\ANITA\MY DOCUMENTS\VISUAL STUDIO 2010\PROJECTS\PAINTANALYSIS 2013-11-02\DFM\DFMSCANDISPLAYCONTROL.RESX
^C:\DOCUMENTS AND SETTINGS\ANITA\MY DOCUMENTS\VISUAL STUDIO 2010\PROJECTS\PAINTANALYSIS 2013-11-02\DFM\DFM_FORM.RESX
^C:\DOCUMENTS AND SETTINGS\ANITA\MY DOCUMENTS\VISUAL STUDIO 2010\PROJECTS\PAINTANALYSIS 2013-11-02\DFM\DFM_FORM_OLD.RESX
^C:\DOCUMENTS AND SETTINGS\ANITA\MY DOCUMENTS\VISUAL STUDIO 2010\PROJECTS\PAINTANALYSIS 2013-11-02\DFM\DFM_FORM_SIMPLE.RESX
^C:\DOCUMENTS AND SETTINGS\ANITA\MY DOCUMENTS\VISUAL STUDIO 2010\PROJECTS\PAINTANALYSIS 2013-11-02\DFM\DFM_RANGECHECKER_FORM.RESX
^C:\DOCUMENTS AND SETTINGS\ANITA\MY DOCUMENTS\VISUAL STUDIO 2010\PROJECTS\PAINTANALYSIS 2013-11-02\DFM\DFM_SETTINGS_FORM.RESX
^C:\DOCUMENTS AND SETTINGS\ANITA\MY DOCUMENTS\VISUAL STUDIO 2010\PROJECTS\PAINTANALYSIS 2013-11-02\DFM\DFM_SETTINGS_FORM_OLD.RESX
^C:\DOCUMENTS AND SETTINGS\ANITA\MY DOCUMENTS\VISUAL STUDIO 2010\PROJECTS\PAINTANALYSIS 2013-11-02\DFM\DFM_SIMPLE_SETTINGS_FORM.RESX
^C:\DOCUMENTS AND SETTINGS\ANITA\MY DOCUMENTS\VISUAL STUDIO 2010\PROJECTS\PAINTANALYSIS 2013-11-02\DFM\GALILFORM.RESX
^C:\DOCUMENTS AND SETTINGS\ANITA\MY DOCUMENTS\VISUAL STUDIO 2010\PROJECTS\PAINTANALYSIS 2013-11-02\DFM\GALILMONITORFORM.RESX
^C:\DOCUMENTS AND SETTINGS\ANITA\MY DOCUMENTS\VISUAL STUDIO 2010\PROJECTS\PAINTANALYSIS 2013-11-02\DFM\GALILTESTINGFORM.RESX
^C:\DOCUMENTS AND SETTINGS\ANITA\MY DOCUMENTS\VISUAL STUDIO 2010\PROJECTS\PAINTANALYSIS 2013-11-02\DFM\GRAPHDISPLAY.RESX
^C:\DOCUMENTS AND SETTINGS\ANITA\MY DOCUMENTS\VISUAL STUDIO 2010\PROJECTS\PAINTANALYSIS 2013-11-02\DFM\LASERTESTFORM.RESX
^C:\DOCUMENTS AND SETTINGS\ANITA\MY DOCUMENTS\VISUAL STUDIO 2010\PROJECTS\PAINTANALYSIS 2013-11-02\DFM\PASSWORDCHANGEFORM.RESX
^C:\DOCUMENTS AND SETTINGS\ANITA\MY DOCUMENTS\VISUAL STUDIO 2010\PROJECTS\PAINTANALYSIS 2013-11-02\DFM\PASSWORDPROMPTFORM.RESX
^C:\DOCUMENTS AND SETTINGS\ANITA\MY DOCUMENTS\VISUAL STUDIO 2010\PROJECTS\PAINTANALYSIS 2013-11-02\DFM\PITDISPLAYFORM.RESX
^C:\DOCUMENTS AND SETTINGS\ANITA\MY DOCUMENTS\VISUAL STUDIO 2010\PROJECTS\PAINTANALYSIS 2013-11-02\DFM\PROPERTIES\RESOURCES.RESX
C:\WINDOWS\MICROSOFT.NET\FRAMEWORK\V2.0.50727\MSCORRC.DLL
C:\DOCUMENTS AND SETTINGS\ANITA\MY DOCUMENTS\VISUAL STUDIO 2010\PROJECTS\PAINTANALYSIS 2013-11-02\DFM\RESOURCES\LOGO_NOTEXT.PNG
C:\DOCUMENTS AND SETTINGS\ANITA\MY DOCUMENTS\VISUAL STUDIO 2010\PROJECTS\PAINTANALYSIS 2013-11-02\DFM\RESOURCES\LOGO_NOTEXT_TRANSPARENT.ICO
^C:\DOCUMENTS AND SETTINGS\ANITA\MY DOCUMENTS\VISUAL STUDIO 2010\PROJECTS\PAINTANALYSIS 2013-11-02\DFM\RESULTS\DFMRESULTSDISPLAYFORM.RESX
^C:\DOCUMENTS AND SETTINGS\ANITA\MY DOCUMENTS\VISUAL STUDIO 2010\PROJECTS\PAINTANALYSIS 2013-11-02\DFM\SCANBROWSERFORM.RESX
^C:\DOCUMENTS AND SETTINGS\ANITA\MY DOCUMENTS\VISUAL STUDIO 2010\PROJECTS\PAINTANALYSIS 2013-11-02\DFM\SETTINGSTESTFORM.RESX
^C:\DOCUMENTS AND SETTINGS\ANITA\MY DOCUMENTS\VISUAL STUDIO 2010\PROJECTS\PAINTANALYSIS 2013-11-02\DFM\SETTINGS\CONTROLS\BASE_SETTINGS_CONTROL.RESX
^C:\DOCUMENTS AND SETTINGS\ANITA\MY DOCUMENTS\VISUAL STUDIO 2010\PROJECTS\PAINTANALYSIS 2013-11-02\DFM\SETTINGS\CONTROLS\TABBED_SETTINGS_CONTROL.RESX
^C:\DOCUMENTS AND SETTINGS\ANITA\MY DOCUMENTS\VISUAL STUDIO 2010\PROJECTS\PAINTANALYSIS 2013-11-02\DFM\SETTINGS\FORMS\BASE_SETTINGS_FORM.RESX
^C:\DOCUMENTS AND SETTINGS\ANITA\MY DOCUMENTS\VISUAL STUDIO 2010\PROJECTS\PAINTANALYSIS 2013-11-02\DFM\SETTINGS\FORMS\TABBED_SETTINGS_FORM.RESX
^C:\DOCUMENTS AND SETTINGS\ANITA\MY DOCUMENTS\VISUAL STUDIO 2010\PROJECTS\PAINTANALYSIS 2013-11-02\DFM\TEST.RESX
^C:\DOCUMENTS AND SETTINGS\ANITA\MY DOCUMENTS\VISUAL STUDIO 2010\PROJECTS\PHAETON_THICKNESS_POC\DFM\BASEGALILFORM.RESX
^C:\DOCUMENTS AND SETTINGS\ANITA\MY DOCUMENTS\VISUAL STUDIO 2010\PROJECTS\PHAETON_THICKNESS_POC\DFM\CAPTIONEDDISPLAY.RESX
^C:\DOCUMENTS AND SETTINGS\ANITA\MY DOCUMENTS\VISUAL STUDIO 2010\PROJECTS\PHAETON_THICKNESS_POC\DFM\DFMSCANDISPLAYCONTROL.RESX
^C:\DOCUMENTS AND SETTINGS\ANITA\MY DOCUMENTS\VISUAL STUDIO 2010\PROJECTS\PHAETON_THICKNESS_POC\DFM\DFM_FORM.RESX
^C:\DOCUMENTS AND SETTINGS\ANITA\MY DOCUMENTS\VISUAL STUDIO 2010\PROJECTS\PHAETON_THICKNESS_POC\DFM\DFM_FORM_OLD.RESX
^C:\DOCUMENTS AND SETTINGS\ANITA\MY DOCUMENTS\VISUAL STUDIO 2010\PROJECTS\PHAETON_THICKNESS_POC\DFM\DFM_RANGECHECKER_FORM.RESX
^C:\DOCUMENTS AND SETTINGS\ANITA\MY DOCUMENTS\VISUAL STUDIO 2010\PROJECTS\PHAETON_THICKNESS_POC\DFM\DFM_SETTINGS_FORM.RESX
^C:\DOCUMENTS AND SETTINGS\ANITA\MY DOCUMENTS\VISUAL STUDIO 2010\PROJECTS\PHAETON_THICKNESS_POC\DFM\DFM_SETTINGS_FORM_OLD.RESX
^C:\DOCUMENTS AND SETTINGS\ANITA\MY DOCUMENTS\VISUAL STUDIO 2010\PROJECTS\PHAETON_THICKNESS_POC\DFM\DFM_SIMPLE_SETTINGS_FORM.RESX
^C:\DOCUMENTS AND SETTINGS\ANITA\MY DOCUMENTS\VISUAL STUDIO 2010\PROJECTS\PHAETON_THICKNESS_POC\DFM\GALILFORM.RESX
^C:\DOCUMENTS AND SETTINGS\ANITA\MY DOCUMENTS\VISUAL STUDIO 2010\PROJECTS\PHAETON_THICKNESS_POC\DFM\GALILMONITORFORM.RESX
^C:\DOCUMENTS AND SETTINGS\ANITA\MY DOCUMENTS\VISUAL STUDIO 2010\PROJECTS\PHAETON_THICKNESS_POC\DFM\GALILTESTINGFORM.RESX
^C:\DOCUMENTS AND SETTINGS\ANITA\MY DOCUMENTS\VISUAL STUDIO 2010\PROJECTS\PHAETON_THICKNESS_POC\DFM\GRAPHDISPLAY.RESX
^C:\DOCUMENTS AND SETTINGS\ANITA\MY DOCUMENTS\VISUAL STUDIO 2010\PROJECTS\PHAETON_THICKNESS_POC\DFM\LASERTESTFORM.RESX
^C:\DOCUMENTS AND SETTINGS\ANITA\MY DOCUMENTS\VISUAL STUDIO 2010\PROJECTS\PHAETON_THICKNESS_POC\DFM\PASSWORDCHANGEFORM.RESX
^C:\DOCUMENTS AND SETTINGS\ANITA\MY DOCUMENTS\VISUAL STUDIO 2010\PROJECTS\PHAETON_THICKNESS_POC\DFM\PASSWORDPROMPTFORM.RESX
^C:\DOCUMENTS AND SETTINGS\ANITA\MY DOCUMENTS\VISUAL STUDIO 2010\PROJECTS\PHAETON_THICKNESS_POC\DFM\PITDISPLAYFORM.RESX
^C:\DOCUMENTS AND SETTINGS\ANITA\MY DOCUMENTS\VISUAL STUDIO 2010\PROJECTS\PHAETON_THICKNESS_POC\DFM\PROPERTIES\RESOURCES.RESX
C:\WINDOWS\MICROSOFT.NET\FRAMEWORK\V2.0.50727\MSCORRC.DLL
C:\DOCUMENTS AND SETTINGS\ANITA\MY DOCUMENTS\VISUAL STUDIO 2010\PROJECTS\PHAETON_THICKNESS_POC\DFM\RESOURCES\LOGO_NOTEXT.PNG
C:\DOCUMENTS AND SETTINGS\ANITA\MY DOCUMENTS\VISUAL STUDIO 2010\PROJECTS\PHAETON_THICKNESS_POC\DFM\RESOURCES\LOGO_NOTEXT_TRANSPARENT.ICO
^C:\DOCUMENTS AND SETTINGS\ANITA\MY DOCUMENTS\VISUAL STUDIO 2010\PROJECTS\PHAETON_THICKNESS_POC\DFM\RESULTS\DFMRESULTSDISPLAYFORM.RESX
^C:\DOCUMENTS AND SETTINGS\ANITA\MY DOCUMENTS\VISUAL STUDIO 2010\PROJECTS\PHAETON_THICKNESS_POC\DFM\SETTINGSTESTFORM.RESX
^C:\DOCUMENTS AND SETTINGS\ANITA\MY DOCUMENTS\VISUAL STUDIO 2010\PROJECTS\PHAETON_THICKNESS_POC\DFM\SETTINGS\CONTROLS\BASE_SETTINGS_CONTROL.RESX
^C:\DOCUMENTS AND SETTINGS\ANITA\MY DOCUMENTS\VISUAL STUDIO 2010\PROJECTS\PHAETON_THICKNESS_POC\DFM\SETTINGS\CONTROLS\TABBED_SETTINGS_CONTROL.RESX
^C:\DOCUMENTS AND SETTINGS\ANITA\MY DOCUMENTS\VISUAL STUDIO 2010\PROJECTS\PHAETON_THICKNESS_POC\DFM\SETTINGS\FORMS\BASE_SETTINGS_FORM.RESX
^C:\DOCUMENTS AND SETTINGS\ANITA\MY DOCUMENTS\VISUAL STUDIO 2010\PROJECTS\PHAETON_THICKNESS_POC\DFM\SETTINGS\FORMS\TABBED_SETTINGS_FORM.RESX
^C:\DOCUMENTS AND SETTINGS\ANITA\MY DOCUMENTS\VISUAL STUDIO 2010\PROJECTS\PHAETON_THICKNESS_POC\DFM\TEST.RESX
^C:\DOCUMENTS AND SETTINGS\ANITA\MY DOCUMENTS\VISUAL STUDIO 2010\PROJECTS\PHAETON_THICKNESS_POC\DFM\SCANBROWSERFORM.RESX
^C:\DOCUMENTS AND SETTINGS\ANITA\MY DOCUMENTS\VISUAL STUDIO 2010\PROJECTS\PHAETON_THICKNESS_POC\DFM\ALGORITHMSELECT.RESX
^C:\DOCUMENTS AND SETTINGS\ANITA\MY DOCUMENTS\VISUAL STUDIO 2010\PROJECTS\PHAETON_THICKNESS_POC\DFM\DATABASEFORM.RESX
^C:\DOCUMENTS AND SETTINGS\ANITA\MY DOCUMENTS\VISUAL STUDIO 2010\PROJECTS\PHAETON_THICKNESS_POC\DFM\DFM_FORM_SIMPLE.RESX
^C:\DOCUMENTS AND SETTINGS\ANITA\MY DOCUMENTS\VISUAL STUDIO 2010\PROJECTS\PHAETON_THICKNESS_POC\PHAETON_THICKNESS_POC\DFM\ALGOCONFIGURATION.RESX
^C:\DOCUMENTS AND SETTINGS\ANITA\MY DOCUMENTS\VISUAL STUDIO 2010\PROJECTS\PHAETON_THICKNESS_POC\PHAETON_THICKNESS_POC\DFM\ALGORITHMSELECT.RESX
^C:\DOCUMENTS AND SETTINGS\ANITA\MY DOCUMENTS\VISUAL STUDIO 2010\PROJECTS\PHAETON_THICKNESS_POC\PHAETON_THICKNESS_POC\DFM\BASEGALILFORM.RESX
^C:\DOCUMENTS AND SETTINGS\ANITA\MY DOCUMENTS\VISUAL STUDIO 2010\PROJECTS\PHAETON_THICKNESS_POC\PHAETON_THICKNESS_POC\DFM\CAPTIONEDDISPLAY.RESX
^C:\DOCUMENTS AND SETTINGS\ANITA\MY DOCUMENTS\VISUAL STUDIO 2010\PROJECTS\PHAETON_THICKNESS_POC\PHAETON_THICKNESS_POC\DFM\DATABASEFORM.RESX
^C:\DOCUMENTS AND SETTINGS\ANITA\MY DOCUMENTS\VISUAL STUDIO 2010\PROJECTS\PHAETON_THICKNESS_POC\PHAETON_THICKNESS_POC\DFM\DFM_FORM_SIMPLE.RESX
^C:\DOCUMENTS AND SETTINGS\ANITA\MY DOCUMENTS\VISUAL STUDIO 2010\PROJECTS\PHAETON_THICKNESS_POC\PHAETON_THICKNESS_POC\DFM\DFM_SETTINGS_FORM.RESX
^C:\DOCUMENTS AND SETTINGS\ANITA\MY DOCUMENTS\VISUAL STUDIO 2010\PROJECTS\PHAETON_THICKNESS_POC\PHAETON_THICKNESS_POC\DFM\DFM_SIMPLE_SETTINGS_FORM.RESX
^C:\DOCUMENTS AND SETTINGS\ANITA\MY DOCUMENTS\VISUAL STUDIO 2010\PROJECTS\PHAETON_THICKNESS_POC\PHAETON_THICKNESS_POC\DFM\PASSWORDCHANGEFORM.RESX
^C:\DOCUMENTS AND SETTINGS\ANITA\MY DOCUMENTS\VISUAL STUDIO 2010\PROJECTS\PHAETON_THICKNESS_POC\PHAETON_THICKNESS_POC\DFM\GALILMONITORFORM.RESX
^C:\DOCUMENTS AND SETTINGS\ANITA\MY DOCUMENTS\VISUAL STUDIO 2010\PROJECTS\PHAETON_THICKNESS_POC\PHAETON_THICKNESS_POC\DFM\DFMSCANDISPLAYCONTROL.RESX
^C:\DOCUMENTS AND SETTINGS\ANITA\MY DOCUMENTS\VISUAL STUDIO 2010\PROJECTS\PHAETON_THICKNESS_POC\PHAETON_THICKNESS_POC\DFM\DFM_FORM.RESX
^C:\DOCUMENTS AND SETTINGS\ANITA\MY DOCUMENTS\VISUAL STUDIO 2010\PROJECTS\PHAETON_THICKNESS_POC\PHAETON_THICKNESS_POC\DFM\DFM_RANGECHECKER_FORM.RESX
^C:\DOCUMENTS AND SETTINGS\ANITA\MY DOCUMENTS\VISUAL STUDIO 2010\PROJECTS\PHAETON_THICKNESS_POC\PHAETON_THICKNESS_POC\DFM\DFM_FORM_OLD.RESX
^C:\DOCUMENTS AND SETTINGS\ANITA\MY DOCUMENTS\VISUAL STUDIO 2010\PROJECTS\PHAETON_THICKNESS_POC\PHAETON_THICKNESS_POC\DFM\DFM_SETTINGS_FORM_OLD.RESX
^C:\DOCUMENTS AND SETTINGS\ANITA\MY DOCUMENTS\VISUAL STUDIO 2010\PROJECTS\PHAETON_THICKNESS_POC\PHAETON_THICKNESS_POC\DFM\GRAPHDISPLAY.RESX
^C:\DOCUMENTS AND SETTINGS\ANITA\MY DOCUMENTS\VISUAL STUDIO 2010\PROJECTS\PHAETON_THICKNESS_POC\PHAETON_THICKNESS_POC\DFM\PASSWORDFRM.RESX
^C:\DOCUMENTS AND SETTINGS\ANITA\MY DOCUMENTS\VISUAL STUDIO 2010\PROJECTS\PHAETON_THICKNESS_POC\PHAETON_THICKNESS_POC\DFM\PASSWORDPROMPTFORM.RESX
^C:\DOCUMENTS AND SETTINGS\ANITA\MY DOCUMENTS\VISUAL STUDIO 2010\PROJECTS\PHAETON_THICKNESS_POC\PHAETON_THICKNESS_POC\DFM\PITDISPLAYFORM.RESX
^C:\DOCUMENTS AND SETTINGS\ANITA\MY DOCUMENTS\VISUAL STUDIO 2010\PROJECTS\PHAETON_THICKNESS_POC\PHAETON_THICKNESS_POC\DFM\MOTOR\RESULTS\DFMRESULTSDISPLAYFORM.RESX
^C:\DOCUMENTS AND SETTINGS\ANITA\MY DOCUMENTS\VISUAL STUDIO 2010\PROJECTS\PHAETON_THICKNESS_POC\PHAETON_THICKNESS_POC\DFM\LASERTESTFORM.RESX
^C:\DOCUMENTS AND SETTINGS\ANITA\MY DOCUMENTS\VISUAL STUDIO 2010\PROJECTS\PHAETON_THICKNESS_POC\PHAETON_THICKNESS_POC\DFM\SETTINGS\CONTROLS\BASE_SETTINGS_CONTROL.RESX
^C:\DOCUMENTS AND SETTINGS\ANITA\MY DOCUMENTS\VISUAL STUDIO 2010\PROJECTS\PHAETON_THICKNESS_POC\PHAETON_THICKNESS_POC\DFM\SETTINGS\CONTROLS\TABBED_SETTINGS_CONTROL.RESX
^C:\DOCUMENTS AND SETTINGS\ANITA\MY DOCUMENTS\VISUAL STUDIO 2010\PROJECTS\PHAETON_THICKNESS_POC\PHAETON_THICKNESS_POC\DFM\SETTINGS\FORMS\BASE_SETTINGS_FORM.RESX
^C:\DOCUMENTS AND SETTINGS\ANITA\MY DOCUMENTS\VISUAL STUDIO 2010\PROJECTS\PHAETON_THICKNESS_POC\PHAETON_THICKNESS_POC\DFM\GALILFORM.RESX
^C:\DOCUMENTS AND SETTINGS\ANITA\MY DOCUMENTS\VISUAL STUDIO 2010\PROJECTS\PHAETON_THICKNESS_POC\PHAETON_THICKNESS_POC\DFM\GALILTESTINGFORM.RESX
^C:\DOCUMENTS AND SETTINGS\ANITA\MY DOCUMENTS\VISUAL STUDIO 2010\PROJECTS\PHAETON_THICKNESS_POC\PHAETON_THICKNESS_POC\DFM\PROPERTIES\RESOURCES.RESX
C:\WINDOWS\MICROSOFT.NET\FRAMEWORK\V2.0.50727\MSCORRC.DLL
C:\DOCUMENTS AND SETTINGS\ANITA\MY DOCUMENTS\VISUAL STUDIO 2010\PROJECTS\PHAETON_THICKNESS_POC\PHAETON_THICKNESS_POC\DFM\RESOURCES\NEW PHAETON SS_2.JPG
C:\DOCUMENTS AND SETTINGS\ANITA\MY DOCUMENTS\VISUAL STUDIO 2010\PROJECTS\PHAETON_THICKNESS_POC\PHAETON_THICKNESS_POC\DFM\RESOURCES\LOGO_NOTEXT.PNG
C:\DOCUMENTS AND SETTINGS\ANITA\MY DOCUMENTS\VISUAL STUDIO 2010\PROJECTS\PHAETON_THICKNESS_POC\PHAETON_THICKNESS_POC\DFM\RESOURCES\LOGO_NOTEXT_TRANSPARENT.ICO
C:\DOCUMENTS AND SETTINGS\ANITA\MY DOCUMENTS\VISUAL STUDIO 2010\PROJECTS\PHAETON_THICKNESS_POC\PHAETON_THICKNESS_POC\DFM\RESOURCES\DJH_LOGO_PNG.PNG
C:\DOCUMENTS AND SETTINGS\ANITA\MY DOCUMENTS\VISUAL STUDIO 2010\PROJECTS\PHAETON_THICKNESS_POC\PHAETON_THICKNESS_POC\DFM\RESOURCES\DJH_LOGO_PNG2.PNG
C:\DOCUMENTS AND SETTINGS\ANITA\MY DOCUMENTS\VISUAL STUDIO 2010\PROJECTS\PHAETON_THICKNESS_POC\PHAETON_THICKNESS_POC\DFM\RESOURCES\DJH LOGO_NEW.PNG
^C:\DOCUMENTS AND SETTINGS\ANITA\MY DOCUMENTS\VISUAL STUDIO 2010\PROJECTS\PHAETON_THICKNESS_POC\PHAETON_THICKNESS_POC\DFM\SETTINGSTESTFORM.RESX
^C:\DOCUMENTS AND SETTINGS\ANITA\MY DOCUMENTS\VISUAL STUDIO 2010\PROJECTS\PHAETON_THICKNESS_POC\PHAETON_THICKNESS_POC\DFM\SETTINGS\FORMS\TABBED_SETTINGS_FORM.RESX
^C:\DOCUMENTS AND SETTINGS\ANITA\MY DOCUMENTS\VISUAL STUDIO 2010\PROJECTS\PHAETON_THICKNESS_POC\PHAETON_THICKNESS_POC\DFM\SPLASHSCREEN.RESX
^C:\DOCUMENTS AND SETTINGS\ANITA\MY DOCUMENTS\VISUAL STUDIO 2010\PROJECTS\PHAETON_THICKNESS_POC\PHAETON_THICKNESS_POC\DFM\TEST.RESX
^C:\DOCUMENTS AND SETTINGS\ANITA\MY DOCUMENTS\VISUAL STUDIO 2010\PROJECTS\PHAETON_THICKNESS_POC\PHAETON_THICKNESS_POC\DFM\SCANBROWSERFORM.RESX
