^C:\SHUBHENDU\PROJECTS\PHAETON\PAINTANALYSIS 2013-11-02\COMMON\BASE\BASEOPTIONSFORM.RESX|C:\SHUBHENDU\PROJECTS\PHAETON\PAINTANALYSIS 2013-11-02\COMMON\BASE\PROFILEMANAGERCONTROL.RESX|C:\SHUBHENDU\PROJECTS\PHAETON\PAINTANALYSIS 2013-11-02\COMMON\BASE\PROFILESAVEASFORM.RESX
C:\SHUBHENDU\PROJECTS\PHAETON\PAINTANALYSIS 2013-11-02\COMMON\OBJ\X86\DEBUG\PAINTANALYSIS.COMMON.BASEOPTIONSFORM.RESOURCES
C:\SHUBHENDU\PROJECTS\PHAETON\PAINTANALYSIS 2013-11-02\COMMON\OBJ\X86\DEBUG\PAINTANALYSIS.COMMON.PROFILEMANAGERCONTROL.RESOURCES
C:\SHUBHENDU\PROJECTS\PHAETON\PAINTANALYSIS 2013-11-02\COMMON\OBJ\X86\DEBUG\PAINTANALYSIS.COMMON.PROFILESAVEASFORM.RESOURCES
